Supplementary Material : A multiplex bead-based immunoassay and data analysis pipeline for 12 markers of fever severity in dried blood spots - 14 Data Analysis - A Tutorial based on the Mos-Def study
…
Number of Fisher Scoring iterations: 6

Here we can see that several PCs are associated with differences between groups in terms of the timepoint.

17.0.0.1 Side note on prediction using regression models.

If you had a big data set with lots of rows, you could split the data, generate a model like this and then test its performance on new data using predict. In the example here, we feed the training data back in as a pseudo-new data set. This returns a probability of being a ‘bad’ outcome.

d$predicted <- predict(object =  glm(data = d,formula = outcome ~ PC1+PC2+PC3+PC4+PC5+PC6+PC7+PC8+PC9+PC10+PC11+PC12,family = "binomial"),newdata=d,type = "response")

(select(d,cf_5_inpatient_outcome,predicted))

# A tibble: 782 × 2
   cf_5_inpatient_outcome predicted
   <chr>                      <dbl>
 1 discharged                0.0461
 2 discharged                0.0969
 3 discharged                0.153 
 4 discharged                0.0641
 5 discharged                0.0461
 6 discharged                0.0103
 7 discharged                0.0267
 8 discharged                0.0427
 9 discharged                0.0893
10 discharged_pallative      0.184 
# ℹ 772 more rows
…
