Supplementary Material : A multiplex bead-based immunoassay and data analysis pipeline for 12 markers of fever severity in dried blood spots - 16 Data Analysis - A Tutorial based on the Mos-Def study
…
Number of Fisher Scoring iterations: 6

Here we can see that several PCs are associated with differences between groups in terms of the timepoint.

19.0.0.1 Side note on prediction using regression models.

If you had a big data set with lots of rows, you could split the data, generate a model like this and then test its performance on new data using predict. In the example here, we feed the training data back in as a pseudo-new data set. This returns a probability of being a ‘bad’ outcome.

d$predicted <- predict(object =  glm(data = d,formula = outcome ~ PC1+PC2+PC3+PC4+PC5+PC6+PC7+PC8+PC9+PC10+PC11+PC12,family = "binomial"),newdata=d,type = "response")

(select(d,cf_5_inpatient_outcome,predicted))

# A tibble: 782 × 2
   cf_5_inpatient_outcome predicted
   <chr>                      <dbl>
 1 discharged                0.0469
 2 discharged                0.0980
 3 discharged                0.154 
 4 discharged                0.0618
 5 discharged                0.0454
 6 discharged                0.0109
 7 discharged                0.0270
 8 discharged                0.0426
 9 discharged                0.0966
10 discharged_pallative      0.195 
# ℹ 772 more rows
…
